
{
  "__v": 0,
  "_id": "552a8abec58791881baaeeee",
  "stat": "",
  "photo": [
    {
      "_id": "552a8abec58791881baaeeef",
      "pathalias": "medusadominicana",
      "width_z": 640,
      "height_z": 640,
      "url_z": "https://farm8.staticflickr.com/7607/17120577872_86a1071ce3_z.jpg",
      "width_n": 320,
      "height_n": 320,
      "url_n": "https://farm8.staticflickr.com/7607/17120577872_86a1071ce3_n.jpg",
      "width_m": 500,
      "height_m": 500,
      "url_m": "https://farm8.staticflickr.com/7607/17120577872_86a1071ce3.jpg",
      "width_q": 150,
      "height_q": 150,
      "url_q": "https://farm8.staticflickr.com/7607/17120577872_86a1071ce3_q.jpg",
      "width_s": "240",
      "height_s": 240,
      "url_s": "https://farm8.staticflickr.com/7607/17120577872_86a1071ce3_m.jpg",
      "width_t": 100,
      "height_t": 100,
      "url_t": "https://farm8.staticflickr.com/7607/17120577872_86a1071ce3_t.jpg",
      "width_sq": 75,
      "height_sq": 75,
      "url_sq": "https://farm8.staticflickr.com/7607/17120577872_86a1071ce3_s.jpg",
      "media_status": "ready",
      "media": "photo",
      "context": "0",
      "accuracy": 0,
      "longitude": 0,
      "latitude": 0,
      "machine_tags": "uploaded:by=instagram",
      "tags": "square squareformat iphoneography instagramapp uploaded:by=instagram",
      "views": 0,
      "iconfarm": 7,
      "iconserver": 6116,
      "ownername": "Chokolate Wasted",
      "datetakenunknown": true,
      "datetakengranularity": false,
      "datetaken": "2015-04-12T15:09:42.000Z",
      "lastupdate": 1428851385,
      "dateupload": 1428851382,
      "description": [],
      "license": false,
      "isfamily": false,
      "isfriend": false,
      "ispublic": true,
      "title": "#namaste",
      "farm": 8,
      "server": 7607,
      "secret": "86a1071ce3",
      "owner": "36787219@N08",
      "dominantColor": "Red",
      "id": "17120577872"
    }
  ],
  "total": 1000,
  "perpage": 1,
  "pages": 1000,
  "page": 1
}

